/home/maiitol/NetBeansProjects/tutenapihibernate/src/main/java/com/tuten/tutenhibernateapiazure/session/Task.java
/home/maiitol/NetBeansProjects/tutenapihibernate/src/main/java/com/tuten/tutenhibernateapiazure/GenericResource.java
/home/maiitol/NetBeansProjects/tutenapihibernate/src/main/java/com/tuten/tutenhibernateapiazure/model/Email.java
/home/maiitol/NetBeansProjects/tutenapihibernate/src/main/java/com/tuten/tutenhibernateapiazure/ApplicationConfig.java
/home/maiitol/NetBeansProjects/tutenapihibernate/src/main/java/com/tuten/tutenhibernateapiazure/session/User.java
